\relax 
\providecommand\hyper@newdestlabel[2]{}
\providecommand\HyperFirstAtBeginDocument{\AtBeginDocument}
\HyperFirstAtBeginDocument{\ifx\hyper@anchor\@undefined
\global\let\oldcontentsline\contentsline
\gdef\contentsline#1#2#3#4{\oldcontentsline{#1}{#2}{#3}}
\global\let\oldnewlabel\newlabel
\gdef\newlabel#1#2{\newlabelxx{#1}#2}
\gdef\newlabelxx#1#2#3#4#5#6{\oldnewlabel{#1}{{#2}{#3}}}
\AtEndDocument{\ifx\hyper@anchor\@undefined
\let\contentsline\oldcontentsline
\let\newlabel\oldnewlabel
\fi}
\fi}
\global\let\hyper@last\relax 
\gdef\HyperFirstAtBeginDocument#1{#1}
\providecommand\HyField@AuxAddToFields[1]{}
\providecommand\HyField@AuxAddToCoFields[2]{}
\providecommand \oddpage@label [2]{}
\@writefile{toc}{\@ifundefined {etoctocstyle}{\let \etoc@startlocaltoc \@gobble \let \etoc@settocdepth \@gobble \let \etoc@depthtag \@gobble \let \etoc@setlocaltop \@gobble }{}}
\babel@aux{english}{}
\@writefile{toc}{\contentsline {section}{\numberline {}Sequences}{1}{section*.1}}
\@writefile{toc}{\contentsline {paragraph}{\relax Notations}{1}{section*.1}}
\@writefile{toc}{\contentsline {section}{\numberline {}Recurent neural nets}{1}{section*.2}}
\@writefile{toc}{\contentsline {paragraph}{\relax Side note}{2}{section*.2}}
\@writefile{toc}{\contentsline {section}{\numberline {}Forward propagation}{3}{section*.3}}
\@writefile{toc}{\contentsline {section}{\numberline {}Back propagation through time}{3}{section*.4}}
\@writefile{toc}{\contentsline {section}{\numberline {}Types of RNNs}{3}{section*.5}}
\global\mtcsecondpartfalse
\@writefile{toc}{\contentsline {section}{\numberline {}Vanishing and exploding gradients}{4}{section*.6}}
\@writefile{toc}{\contentsline {section}{\numberline {}Gated Recurrent Unit (GRU)}{4}{section*.7}}
