\relax 
\providecommand\hyper@newdestlabel[2]{}
\providecommand\HyperFirstAtBeginDocument{\AtBeginDocument}
\HyperFirstAtBeginDocument{\ifx\hyper@anchor\@undefined
\global\let\oldcontentsline\contentsline
\gdef\contentsline#1#2#3#4{\oldcontentsline{#1}{#2}{#3}}
\global\let\oldnewlabel\newlabel
\gdef\newlabel#1#2{\newlabelxx{#1}#2}
\gdef\newlabelxx#1#2#3#4#5#6{\oldnewlabel{#1}{{#2}{#3}}}
\AtEndDocument{\ifx\hyper@anchor\@undefined
\let\contentsline\oldcontentsline
\let\newlabel\oldnewlabel
\fi}
\fi}
\global\let\hyper@last\relax 
\gdef\HyperFirstAtBeginDocument#1{#1}
\providecommand\HyField@AuxAddToFields[1]{}
\providecommand\HyField@AuxAddToCoFields[2]{}
\providecommand \oddpage@label [2]{}
\@writefile{toc}{\@ifundefined {etoctocstyle}{\let \etoc@startlocaltoc \@gobble \let \etoc@settocdepth \@gobble \let \etoc@depthtag \@gobble \let \etoc@setlocaltop \@gobble }{}}
\babel@aux{english}{}
\@writefile{toc}{\contentsline {paragraph}{\relax Zero initialization}{1}{section*.2}}
\@writefile{toc}{\contentsline {paragraph}{\relax Random initialization}{1}{section*.2}}
\@writefile{toc}{\contentsline {paragraph}{\relax A better initialization}{1}{section*.2}}
\@writefile{toc}{\contentsline {paragraph}{\relax As a summary}{1}{section*.2}}
\@writefile{toc}{\contentsline {paragraph}{\relax L1 \& L2}{2}{section*.4}}
\@writefile{toc}{\contentsline {paragraph}{\relax Dropout}{2}{section*.4}}
\global\mtcsecondpartfalse
